%YAML 1.1
%TAG !u! tag:unity3d.com,2011:
--- !u!1045 &1
EditorBuildSettings:
  m_ObjectHideFlags: 0
  serializedVersion: 2
  m_Scenes:
  - enabled: 1
    path: Assets/Scenes/test_scene.unity
    guid: 71e80782941582e42994b4b637c6a7c4
  m_configObjects:
    Unity.XR.OpenVR.Settings: {fileID: 11400000, guid: 3c18c2708a45ba642a569e6ce2dff7df,
      type: 2}
    com.unity.xr.management.loader_settings: {fileID: 11400000, guid: dd8a5aebad725d3458a6466835a0d2d4,
      type: 2}
